{
	"version": 1,
	"collections": [
		{
			"id": "3e8a6fa6-ddc3-4572-a397-7f2b8c43fdc5",
			"name": "ApiCNVCollection",
			"description": "",
			"auth": null,
			"events": null,
			"variables": [],
			"order": [
				"186c0dbc-03e0-4371-939f-09fe871ed589",
				"f73e067e-738a-42ec-951e-0f02bb00ba66",
				"5adecb0e-fa09-4322-a706-842b2c92e7f0",
				"2e8b76b5-4040-4ad9-afc8-7fdf919daf49",
				"4d685e4e-abf6-436b-8446-9c274f296646",
				"b2fe0fb3-d23e-41cf-931f-6d8ca39ac733",
				"cdcaba45-f894-4606-8ab1-41ff8698079f",
				"4d23df25-e8fc-41a8-b2f0-e814bd07ad72"
			],
			"folders_order": [],
			"protocolProfileBehavior": {},
			"folders": [],
			"requests": [
				{
					"id": "186c0dbc-03e0-4371-939f-09fe871ed589",
					"name": "0 - health",
					"url": "{{host}}/api/v1/health",
					"description": "",
					"data": null,
					"dataOptions": null,
					"dataMode": null,
					"headerData": [
						{
							"description": "",
							"enabled": false,
							"key": "X-RapidAPI-Key",
							"type": "text",
							"value": "SIGN-UP-FOR-KEY"
						},
						{
							"description": "",
							"enabled": false,
							"key": "X-RapidAPI-Host",
							"type": "text",
							"value": "human.p.rapidapi.com"
						}
					],
					"method": "GET",
					"pathVariableData": [],
					"queryParams": [],
					"auth": {
						"bearer": [
							{
								"key": "token",
								"value": "{{token}}"
							}
						],
						"type": "bearer"
					},
					"events": [],
					"folder": null,
					"currentHelper": "bearerAuth",
					"helperAttributes": {
						"id": "bearer",
						"token": "{{token}}"
					},
					"collectionId": "3e8a6fa6-ddc3-4572-a397-7f2b8c43fdc5",
					"headers": "//X-RapidAPI-Key: SIGN-UP-FOR-KEY\n//X-RapidAPI-Host: human.p.rapidapi.com\n",
					"pathVariables": {}
				},
				{
					"id": "2e8b76b5-4040-4ad9-afc8-7fdf919daf49",
					"name": "3 - Test token",
					"url": "{{host}}/api/v1/test",
					"description": "",
					"data": null,
					"dataOptions": null,
					"dataMode": null,
					"headerData": [
						{
							"description": "",
							"enabled": false,
							"key": "X-RapidAPI-Key",
							"type": "text",
							"value": "SIGN-UP-FOR-KEY"
						},
						{
							"description": "",
							"enabled": false,
							"key": "X-RapidAPI-Host",
							"type": "text",
							"value": "human.p.rapidapi.com"
						}
					],
					"method": "GET",
					"pathVariableData": [],
					"queryParams": [],
					"auth": {
						"type": "bearer",
						"bearer": [
							{
								"key": "token",
								"value": "{{token}}"
							}
						]
					},
					"events": [],
					"folder": null,
					"currentHelper": "bearerAuth",
					"helperAttributes": {
						"id": "bearer",
						"token": "{{token}}"
					},
					"collectionId": "3e8a6fa6-ddc3-4572-a397-7f2b8c43fdc5",
					"headers": "//X-RapidAPI-Key: SIGN-UP-FOR-KEY\n//X-RapidAPI-Host: human.p.rapidapi.com\n",
					"pathVariables": {}
				},
				{
					"id": "4d23df25-e8fc-41a8-b2f0-e814bd07ad72",
					"name": "6 - Get favorites",
					"url": "{{host}}/api/v1/cnv/gif/favorites",
					"description": "Obtenemos todos los gifs cuyo nombre incluya la 'palabra' que se envia por parametro",
					"data": [],
					"dataOptions": {
						"raw": {
							"language": "json"
						}
					},
					"dataMode": "raw",
					"headerData": [],
					"method": "GET",
					"pathVariableData": [],
					"queryParams": [],
					"auth": {
						"bearer": [
							{
								"key": "token",
								"value": "{{token}}"
							}
						],
						"type": "bearer"
					},
					"events": [],
					"folder": null,
					"protocolProfileBehavior": {
						"disableBodyPruning": true
					},
					"currentHelper": "bearerAuth",
					"helperAttributes": {
						"id": "bearer",
						"token": "{{token}}"
					},
					"collectionId": "3e8a6fa6-ddc3-4572-a397-7f2b8c43fdc5",
					"rawModeData": "",
					"headers": "",
					"pathVariables": {}
				},
				{
					"id": "4d685e4e-abf6-436b-8446-9c274f296646",
					"name": "4 - Gifs by phrase",
					"url": "{{host}}/api/v1/cnv/gifs",
					"description": "",
					"data": [],
					"dataOptions": {
						"raw": {
							"language": "json"
						}
					},
					"dataMode": "raw",
					"headerData": [
						{
							"description": "",
							"enabled": false,
							"key": "X-RapidAPI-Key",
							"type": "text",
							"value": "SIGN-UP-FOR-KEY"
						},
						{
							"description": "",
							"enabled": false,
							"key": "X-RapidAPI-Host",
							"type": "text",
							"value": "human.p.rapidapi.com"
						}
					],
					"method": "GET",
					"pathVariableData": [],
					"queryParams": [],
					"auth": {
						"type": "bearer",
						"bearer": [
							{
								"key": "token",
								"value": "{{token}}"
							}
						]
					},
					"events": [],
					"folder": null,
					"protocolProfileBehavior": {
						"disableBodyPruning": true
					},
					"currentHelper": "bearerAuth",
					"helperAttributes": {
						"id": "bearer",
						"token": "{{token}}"
					},
					"collectionId": "3e8a6fa6-ddc3-4572-a397-7f2b8c43fdc5",
					"rawModeData": "{\n    \"query\":\"messi\",\n    \"limit\": 30,\n    \"offset\":50\n}",
					"headers": "//X-RapidAPI-Key: SIGN-UP-FOR-KEY\n//X-RapidAPI-Host: human.p.rapidapi.com\n",
					"pathVariables": {}
				},
				{
					"id": "5adecb0e-fa09-4322-a706-842b2c92e7f0",
					"name": "2 - Login",
					"url": "{{host}}/api/v1/login",
					"description": "",
					"data": [],
					"dataOptions": {
						"raw": {
							"language": "json"
						}
					},
					"dataMode": "raw",
					"headerData": [
						{
							"description": "",
							"enabled": false,
							"key": "X-RapidAPI-Key",
							"type": "text",
							"value": "SIGN-UP-FOR-KEY"
						},
						{
							"description": "",
							"enabled": false,
							"key": "X-RapidAPI-Host",
							"type": "text",
							"value": "human.p.rapidapi.com"
						}
					],
					"method": "POST",
					"pathVariableData": [],
					"queryParams": [
						{
							"key": "email",
							"value": "juana@yahoo.com",
							"equals": true,
							"description": null,
							"enabled": false
						},
						{
							"key": "password",
							"value": "1234",
							"equals": true,
							"description": null,
							"enabled": false
						}
					],
					"auth": {
						"type": "noauth",
						"noauth": []
					},
					"events": [
						{
							"listen": "test",
							"script": {
								"id": "76130ca2-ef5c-4e40-8f34-590802093544",
								"exec": [
									"var data = JSON.parse(responseBody);",
									"postman.setGlobalVariable(\"token\", data.value);"
								],
								"type": "text/javascript"
							}
						}
					],
					"folder": null,
					"preRequestScript": null,
					"tests": "var data = JSON.parse(responseBody);\npostman.setGlobalVariable(\"token\", data.value);",
					"currentHelper": null,
					"helperAttributes": null,
					"collectionId": "3e8a6fa6-ddc3-4572-a397-7f2b8c43fdc5",
					"rawModeData": "{\n    \"email\":\"prex@yahoo.com\",\n    \"password\":\"1234\"\n}",
					"headers": "//X-RapidAPI-Key: SIGN-UP-FOR-KEY\n//X-RapidAPI-Host: human.p.rapidapi.com\n",
					"pathVariables": {}
				},
				{
					"id": "b2fe0fb3-d23e-41cf-931f-6d8ca39ac733",
					"name": "5 - Gif by id",
					"url": "{{host}}/api/v1/cnv/gif",
					"description": "",
					"data": [],
					"dataOptions": {
						"raw": {
							"language": "json"
						}
					},
					"dataMode": "raw",
					"headerData": [
						{
							"description": "",
							"enabled": false,
							"key": "X-RapidAPI-Key",
							"type": "text",
							"value": "SIGN-UP-FOR-KEY"
						},
						{
							"description": "",
							"enabled": false,
							"key": "X-RapidAPI-Host",
							"type": "text",
							"value": "human.p.rapidapi.com"
						}
					],
					"method": "GET",
					"pathVariableData": [],
					"queryParams": [
						{
							"key": "phras",
							"value": null,
							"equals": false,
							"description": "",
							"enabled": false
						}
					],
					"auth": {
						"bearer": [
							{
								"key": "token",
								"value": "{{token}}"
							}
						],
						"type": "bearer"
					},
					"events": [],
					"folder": null,
					"protocolProfileBehavior": {
						"disableBodyPruning": true
					},
					"currentHelper": "bearerAuth",
					"helperAttributes": {
						"id": "bearer",
						"token": "{{token}}"
					},
					"collectionId": "3e8a6fa6-ddc3-4572-a397-7f2b8c43fdc5",
					"rawModeData": "{\n    \"gif_id\":\"pqFbHWj0vRqmY\"\n}",
					"headers": "//X-RapidAPI-Key: SIGN-UP-FOR-KEY\n//X-RapidAPI-Host: human.p.rapidapi.com\n",
					"pathVariables": {}
				},
				{
					"id": "cdcaba45-f894-4606-8ab1-41ff8698079f",
					"name": "6 - Save favorite",
					"url": "{{host}}/api/v1/cnv/gif/favorite",
					"description": "Obtenemos todos los gifs cuyo nombre incluya la 'palabra' que se envia por parametro",
					"data": [],
					"dataOptions": {
						"raw": {
							"language": "json"
						}
					},
					"dataMode": "raw",
					"headerData": [],
					"method": "POST",
					"pathVariableData": [],
					"queryParams": [],
					"auth": {
						"type": "bearer",
						"bearer": [
							{
								"key": "token",
								"value": "{{token}}"
							}
						]
					},
					"events": [],
					"folder": null,
					"currentHelper": "bearerAuth",
					"helperAttributes": {
						"id": "bearer",
						"token": "{{token}}"
					},
					"collectionId": "3e8a6fa6-ddc3-4572-a397-7f2b8c43fdc5",
					"rawModeData": "{\n    \"gif_id\":\"TjAcxImn74uoDYVxFl2322222%%%\",\n    \"alias\":\"messi\",\n    \"user_id\": \"3\"\n}",
					"headers": "",
					"pathVariables": {}
				},
				{
					"id": "f73e067e-738a-42ec-951e-0f02bb00ba66",
					"name": "1 - Register",
					"url": "{{host}}/api/v1/register",
					"description": "Obtenemos todos los gifs cuyo nombre incluya la 'palabra' que se envia por parametro",
					"data": [],
					"dataOptions": {
						"raw": {
							"language": "json"
						}
					},
					"dataMode": "raw",
					"headerData": [],
					"method": "POST",
					"pathVariableData": [],
					"queryParams": [],
					"auth": {
						"type": "noauth",
						"noauth": []
					},
					"events": [
						{
							"listen": "test",
							"script": {
								"id": "774dcddc-7cf5-46d0-9db0-832b40651bf1",
								"exec": [
									"var data = JSON.parse(responseBody);",
									"postman.setGlobalVariable(\"token\", data.value.token);"
								],
								"type": "text/javascript"
							}
						}
					],
					"folder": null,
					"preRequestScript": null,
					"tests": "var data = JSON.parse(responseBody);\npostman.setGlobalVariable(\"token\", data.value.token);",
					"currentHelper": null,
					"helperAttributes": null,
					"collectionId": "3e8a6fa6-ddc3-4572-a397-7f2b8c43fdc5",
					"rawModeData": "{\n    \"name\":\"laura\",\n    \"email\": \"laura@yahoo.com\",\n    \"password\":\"1234\"\n}",
					"headers": "",
					"pathVariables": {}
				}
			]
		}
	],
	"environments": [
		{
			"id": "9d6c6991-8091-44a0-91f7-13cb9592869b",
			"name": "local",
			"values": [
				{
					"key": "host",
					"value": "http://localhost:8000",
					"enabled": true
				}
			]
		},
		{
			"id": "a3e780ba-c8b6-4fed-86f4-3598b9090545",
			"name": "My Workspace - globals",
			"values": [
				{
					"key": "token",
					"value": "",
					"enabled": true
				}
			]
		}
	],
	"headerPresets": [],
	"globals": []
}